module gitlab.com/Mrakie/test-proj

go 1.13

require (
	github.com/googleapis/gnostic v0.3.1 // indirect
	github.com/hashicorp/vault/api v1.0.4
	github.com/imdario/mergo v0.3.8 // indirect
	golang.org/x/crypto v0.0.0-20191122220453-ac88ee75c92c // indirect
	golang.org/x/net v0.0.0-20191124235446-72fef5d5e266 // indirect
	golang.org/x/oauth2 v0.0.0-20191122200657-5d9234df094c // indirect
	golang.org/x/time v0.0.0-20191024005414-555d28b269f0 // indirect
	k8s.io/api v0.0.0-20191121015604-11707872ac1c
	k8s.io/apimachinery v0.0.0-20191123233150-4c4803ed55e3
	k8s.io/client-go v12.0.0+incompatible
	k8s.io/utils v0.0.0-20191114200735-6ca3b61696b6 // indirect
)
